c:\users\majc89\dropbox\working code\heroes3.5\_plugins_\example\project1\debug\vc140.pdb
c:\users\majc89\dropbox\working code\heroes3.5\_plugins_\example\project1\debug\vc140.idb
c:\users\majc89\dropbox\working code\heroes3.5\_plugins_\example\project1\debug\exampleplugin.obj
c:\users\majc89\dropbox\working code\heroes3.5\_plugins_\example\project1\debug\project1.exp
c:\users\majc89\dropbox\working code\heroes3.5\_plugins_\example\project1\debug\project1.pdb
c:\users\majc89\dropbox\working code\heroes3.5\_plugins_\example\project1\debug\project1.tlog\cl.command.1.tlog
c:\users\majc89\dropbox\working code\heroes3.5\_plugins_\example\project1\debug\project1.tlog\cl.read.1.tlog
c:\users\majc89\dropbox\working code\heroes3.5\_plugins_\example\project1\debug\project1.tlog\cl.write.1.tlog
c:\users\majc89\dropbox\working code\heroes3.5\_plugins_\example\project1\debug\project1.tlog\link-cvtres.read.1.tlog
c:\users\majc89\dropbox\working code\heroes3.5\_plugins_\example\project1\debug\project1.tlog\link-cvtres.write.1.tlog
c:\users\majc89\dropbox\working code\heroes3.5\_plugins_\example\project1\debug\project1.tlog\link-rc.read.1.tlog
c:\users\majc89\dropbox\working code\heroes3.5\_plugins_\example\project1\debug\project1.tlog\link-rc.write.1.tlog
c:\users\majc89\dropbox\working code\heroes3.5\_plugins_\example\project1\debug\project1.tlog\link.command.1.tlog
c:\users\majc89\dropbox\working code\heroes3.5\_plugins_\example\project1\debug\project1.tlog\link.read.1.tlog
c:\users\majc89\dropbox\working code\heroes3.5\_plugins_\example\project1\debug\project1.tlog\link.write.1.tlog
