^F:\_MAJC89\DROPBOX\WORKING CODE\HEROES3.5\_PLUGINS_\TEST EVENTS\PROJECT1\DEBUG\EXAMPLEPLUGIN.OBJ
F:\_MAJC89\DROPBOX\WORKING CODE\HEROES3.5\_PLUGINS_\TEST EVENTS\PROJECT1\DEBUG\1EVENTTEST.ILK
F:\_MAJC89\DROPBOX\WORKING CODE\HEROES3.5\_PLUGINS_\TEST EVENTS\PROJECT1\DEBUG\1EVENTTEST.ERA
F:\_MAJC89\DROPBOX\WORKING CODE\HEROES3.5\_PLUGINS_\TEST EVENTS\PROJECT1\DEBUG\1EVENTTEST.PDB
