^E:\DEV\__REPOSITORY__\_H3ERA_PLUGINS_\MORE_SS_LEVELS\DEBUG\DLLMAIN.OBJ|E:\DEV\__REPOSITORY__\_H3ERA_PLUGINS_\MORE_SS_LEVELS\DEBUG\HEROES.OBJ|E:\DEV\__REPOSITORY__\_H3ERA_PLUGINS_\MORE_SS_LEVELS\DEBUG\SHOW_HERO_SS_ICONS.OBJ
E:\DEV\__REPOSITORY__\_H3ERA_PLUGINS_\MORE_SS_LEVELS\DEBUG\MORE_SS_LEVELS.DLL
E:\DEV\__REPOSITORY__\_H3ERA_PLUGINS_\MORE_SS_LEVELS\DEBUG\MORE_SS_LEVELS.ILK
E:\DEV\__REPOSITORY__\_H3ERA_PLUGINS_\MORE_SS_LEVELS\DEBUG\MORE_SS_LEVELS.PDB
