^C:\Users\MAJC89\Dropbox\Working Code\Heroes3.5\_Plugins_\Emerald3\emerald\emerald.vcxproj
C:\Users\MAJC89\Dropbox\Working Code\Heroes3.5\_Plugins_\Emerald3\Debug\emerald3.lib
C:\Users\MAJC89\Dropbox\Working Code\Heroes3.5\_Plugins_\Emerald3\Debug\emerald3.exp
