^F:\__REPOSITORY__\_H3ERA_PLUGINS_\ELEMLORD\HEROES.CPP
/c /Zi /nologo /W3 /WX- /sdl /O2 /Oi /Oy- /GL /D _WINDLL /Gm- /EHsc /MD /GS /Gy /fp:precise /Zc:wchar_t /Zc:forScope /Zc:inline /Fo"RELEASE\\" /Fd"RELEASE\VC140.PDB" /Gd /TP /analyze- F:\__REPOSITORY__\_H3ERA_PLUGINS_\ELEMLORD\HEROES.CPP
^F:\__REPOSITORY__\_H3ERA_PLUGINS_\ELEMLORD\ELEMLORD\ELEMLORD.CPP
/c /Zi /nologo /W3 /WX- /sdl /O2 /Oi /Oy- /GL /D _WINDLL /Gm- /EHsc /MD /GS /Gy /fp:precise /Zc:wchar_t /Zc:forScope /Zc:inline /Fo"RELEASE\\" /Fd"RELEASE\VC140.PDB" /Gd /TP /analyze- F:\__REPOSITORY__\_H3ERA_PLUGINS_\ELEMLORD\ELEMLORD\ELEMLORD.CPP
