^E:\DEV\__REPOSITORY__\_H3ERA_PLUGINS_\EMERALD3\EMERALD\RELEASE\ARTIFACTCOMBOS.OBJ|E:\DEV\__REPOSITORY__\_H3ERA_PLUGINS_\EMERALD3\EMERALD\RELEASE\CLEANBEGIN.OBJ|E:\DEV\__REPOSITORY__\_H3ERA_PLUGINS_\EMERALD3\EMERALD\RELEASE\CONFIG.OBJ|E:\DEV\__REPOSITORY__\_H3ERA_PLUGINS_\EMERALD3\EMERALD\RELEASE\DEBUGWINDOW.OBJ|E:\DEV\__REPOSITORY__\_H3ERA_PLUGINS_\EMERALD3\EMERALD\RELEASE\DLLMAIN.OBJ|E:\DEV\__REPOSITORY__\_H3ERA_PLUGINS_\EMERALD3\EMERALD\RELEASE\DUPLICATE.OBJ|E:\DEV\__REPOSITORY__\_H3ERA_PLUGINS_\EMERALD3\EMERALD\RELEASE\EMERALD.OBJ|E:\DEV\__REPOSITORY__\_H3ERA_PLUGINS_\EMERALD3\EMERALD\RELEASE\EVENTS.OBJ|E:\DEV\__REPOSITORY__\_H3ERA_PLUGINS_\EMERALD3\EMERALD\RELEASE\EXTERNAL.OBJ|E:\DEV\__REPOSITORY__\_H3ERA_PLUGINS_\EMERALD3\EMERALD\RELEASE\HEROES.OBJ|E:\DEV\__REPOSITORY__\_H3ERA_PLUGINS_\EMERALD3\EMERALD\RELEASE\LUCKMORALE.OBJ|E:\DEV\__REPOSITORY__\_H3ERA_PLUGINS_\EMERALD3\EMERALD\RELEASE\PROPERTIES.OBJ|E:\DEV\__REPOSITORY__\_H3ERA_PLUGINS_\EMERALD3\EMERALD\RELEASE\RANDOM.OBJ|E:\DEV\__REPOSITORY__\_H3ERA_PLUGINS_\EMERALD3\EMERALD\RELEASE\RESISTANCE.OBJ
D:\WINDOWS KITS\10\LIB\10.0.18362.0\UM\X86\KERNEL32.LIB
D:\WINDOWS KITS\10\LIB\10.0.18362.0\UM\X86\USER32.LIB
D:\WINDOWS KITS\10\LIB\10.0.18362.0\UM\X86\GDI32.LIB
D:\WINDOWS KITS\10\LIB\10.0.18362.0\UM\X86\WINSPOOL.LIB
D:\WINDOWS KITS\10\LIB\10.0.18362.0\UM\X86\COMDLG32.LIB
D:\WINDOWS KITS\10\LIB\10.0.18362.0\UM\X86\ADVAPI32.LIB
D:\WINDOWS KITS\10\LIB\10.0.18362.0\UM\X86\SHELL32.LIB
D:\WINDOWS KITS\10\LIB\10.0.18362.0\UM\X86\OLE32.LIB
D:\WINDOWS KITS\10\LIB\10.0.18362.0\UM\X86\OLEAUT32.LIB
D:\WINDOWS KITS\10\LIB\10.0.18362.0\UM\X86\UUID.LIB
D:\WINDOWS KITS\10\LIB\10.0.18362.0\UM\X86\ODBC32.LIB
D:\WINDOWS KITS\10\LIB\10.0.18362.0\UM\X86\ODBCCP32.LIB
E:\DEV\__REPOSITORY__\_H3ERA_PLUGINS_\EMERALD3\EMERALD\RELEASE\HEROES.OBJ
E:\DEV\__REPOSITORY__\_H3ERA_PLUGINS_\EMERALD3\EMERALD\RELEASE\ARTIFACTCOMBOS.OBJ
E:\DEV\__REPOSITORY__\_H3ERA_PLUGINS_\EMERALD3\EMERALD\RELEASE\CLEANBEGIN.OBJ
E:\DEV\__REPOSITORY__\_H3ERA_PLUGINS_\EMERALD3\EMERALD\RELEASE\CONFIG.OBJ
E:\DEV\__REPOSITORY__\_H3ERA_PLUGINS_\EMERALD3\EMERALD\RELEASE\DEBUGWINDOW.OBJ
E:\DEV\__REPOSITORY__\_H3ERA_PLUGINS_\EMERALD3\EMERALD\RELEASE\DLLMAIN.OBJ
E:\DEV\__REPOSITORY__\_H3ERA_PLUGINS_\EMERALD3\EMERALD\RELEASE\DUPLICATE.OBJ
E:\DEV\__REPOSITORY__\_H3ERA_PLUGINS_\EMERALD3\EMERALD\RELEASE\EMERALD.OBJ
E:\DEV\__REPOSITORY__\_H3ERA_PLUGINS_\EMERALD3\EMERALD\RELEASE\EVENTS.OBJ
E:\DEV\__REPOSITORY__\_H3ERA_PLUGINS_\EMERALD3\EMERALD\RELEASE\EXTERNAL.OBJ
E:\DEV\__REPOSITORY__\_H3ERA_PLUGINS_\EMERALD3\EMERALD\RELEASE\LUCKMORALE.OBJ
E:\DEV\__REPOSITORY__\_H3ERA_PLUGINS_\EMERALD3\EMERALD\RELEASE\PROPERTIES.OBJ
E:\DEV\__REPOSITORY__\_H3ERA_PLUGINS_\EMERALD3\EMERALD\RELEASE\RANDOM.OBJ
E:\DEV\__REPOSITORY__\_H3ERA_PLUGINS_\EMERALD3\EMERALD\RELEASE\RESISTANCE.OBJ
C:\WINDOWS\GLOBALIZATION\SORTING\SORTDEFAULT.NLS
C:\PROGRAM FILES (X86)\MICROSOFT VISUAL STUDIO\2019\COMMUNITY\VC\TOOLS\MSVC\14.25.28610\LIB\X86\LIBCMT.LIB
C:\PROGRAM FILES (X86)\MICROSOFT VISUAL STUDIO\2019\COMMUNITY\VC\TOOLS\MSVC\14.25.28610\LIB\X86\OLDNAMES.LIB
C:\PROGRAM FILES (X86)\MICROSOFT VISUAL STUDIO\2019\COMMUNITY\VC\TOOLS\MSVC\14.25.28610\LIB\X86\LIBVCRUNTIME.LIB
D:\WINDOWS KITS\10\LIB\10.0.18362.0\UCRT\X86\LIBUCRT.LIB
C:\WINDOWS\SYSTEM32\TZRES.DLL
C:\PROGRAM FILES (X86)\MICROSOFT VISUAL STUDIO\2019\COMMUNITY\VC\TOOLS\MSVC\14.25.28610\BIN\HOSTX86\X86\1033\LINKUI.DLL
C:\PROGRAM FILES (X86)\MICROSOFT VISUAL STUDIO\2019\COMMUNITY\VC\TOOLS\MSVC\14.25.28610\BIN\HOSTX86\X86\CVTRES.EXE
C:\PROGRAM FILES (X86)\MICROSOFT VISUAL STUDIO\2019\COMMUNITY\VC\TOOLS\MSVC\14.25.28610\BIN\HOSTX86\X86\MSPDBSRV.EXE
